{
  "page": 1,
  "total_results": 2233,
  "total_pages": 112,
  "results": [
    {
      "vote_count": 10235,
      "id": 11,
      "video": false,
      "vote_average": 8.2,
      "title": "La Guerre des étoiles",
      "popularity": 34.289,
      "poster_path": "/yVaQ34IvVDAZAWxScNdeIkaepDq.jpg",
      "original_language": "en",
      "original_title": "Star Wars",
      "genre_ids": [12, 28, 878],
      "backdrop_path": "/4iJfYYoQzZcONB9hNzg0J0wWyPH.jpg",
      "adult": false,
      "overview": "Il y a bien longtemps, dans une galaxie très lointaine... La guerre civile fait rage entre l'Empire galactique et l'Alliance rebelle. Capturée par les troupes de choc de l'Empereur menées par le sombre et impitoyable Dark Vador, la princesse Leia Organa dissimule les plans de l’Étoile Noire, une station spatiale invulnérable, à son droïde R2-D2 avec pour mission de les remettre au Jedi Obi-Wan Kenobi. Accompagné de son fidèle compagnon, le droïde de protocole C-3PO, R2-D2 s'échoue sur la planète Tatooine et termine sa quête chez le jeune Luke Skywalker. Rêvant de devenir pilote mais confiné aux travaux de la ferme, ce dernier se lance à la recherche de ce mystérieux Obi-Wan Kenobi, devenu ermite au cœur des montagnes désertiques de Tatooine...",
      "release_date": "1977-05-25"
    },
    {
      "vote_count": 2080,
      "id": 332562,
      "video": false,
      "vote_average": 7.4,
      "title": "A Star Is Born",
      "popularity": 68.054,
      "poster_path": "/uoq8DobPxciPEJ5EuBeqDt8av76.jpg",
      "original_language": "en",
      "original_title": "A Star Is Born",
      "genre_ids": [18, 10402, 10749],
      "backdrop_path": "/840rbblaLc4SVxm8gF3DNdJ0YAE.jpg",
      "adult": false,
      "overview": "Star de country un peu oubliée, Jackson Maine découvre Ally, une jeune chanteuse très prometteuse. Tandis qu'ils tombent follement amoureux l'un de l'autre, Jack propulse Ally sur le devant de la scène et fait d'elle une artiste adulée par le public. Bientôt éclipsé par le succès de la jeune femme, il vit de plus en plus de mal son propre déclin…",
      "release_date": "2018-10-03"
    },
    {
      "vote_count": 5905,
      "id": 13475,
      "video": false,
      "vote_average": 7.4,
      "title": "Star Trek",
      "popularity": 14.253,
      "poster_path": "/yINrXObbofBn3ZGEskGRUNJlQqX.jpg",
      "original_language": "en",
      "original_title": "Star Trek",
      "genre_ids": [878, 28, 12],
      "backdrop_path": "/1XOSh6BFZbQ0xN75m4avqgzClyG.jpg",
      "adult": false,
      "overview": "La plus grande odyssée spatiale de tous les temps voit le jour dans le nouveau Star Trek, mettant en scène le premier voyage d'un tout nouvel équipage à bord de l'U.S.S. Enterprise, le vaisseau spatial le plus sophistiqué de l'histoire.  Dans ce périple semé de dangers, d'action et d'humour, les nouvelles recrues doivent tout faire pour empêcher le plan diabolique d'un être maléfique menaçant l'humanité tout entière dans sa quête de vengeance.  Le sort de la galaxie est entre les mains de deux officiers que tout oppose : d'un côté, James Kirk, originaire de la rurale IOWA, tête brulée en quête de sensations fortes, de l'autre, Spock, issu d'une société basée sur la logique et rejetant toute forme d'émotion.  Quand l'instinct fougueux rencontre la raison pure, une improbable mais puissante alliance se forme et sera seule en mesure de faire traverser à l'équipage d'effroyables dangers, là où personne n'est encore jamais allé.",
      "release_date": "2009-05-06"
    },
    {
      "vote_count": 191,
      "id": 355547,
      "video": false,
      "vote_average": 5.3,
      "title": "L'Étoile de Noël",
      "popularity": 12.893,
      "poster_path": "/i9Nks7KwL8pbjzjV2Rze5krGZrF.jpg",
      "original_language": "en",
      "original_title": "The Star",
      "genre_ids": [35, 12, 10751, 14, 16],
      "backdrop_path": "/xRbMZBHaCa8xWIL2AFmLM2TOKBf.jpg",
      "adult": false,
      "overview": "L’histoire d’un petit âne courageux, Bo, qui rêve d’une vie meilleure loin du train-train quotidien du moulin du village. Un jour, il trouve le courage de se libérer pour vivre enfin la grande aventure ! Sur sa route, il va faire équipe avec Ruth, une adorable brebis qui a perdu son troupeau, et Dave, une colombe aux nobles aspirations. Rejoint par trois chameaux déjantés et quelques animaux de la ferme plus excentriques les uns que les autres, Bo et ses nouveaux amis suivent l’Étoile… et vont devenir les héros méconnus de la plus belle histoire jamais contée : celle du premier Noël.",
      "release_date": "2017-11-15"
    },
    {
      "vote_count": 7327,
      "id": 181808,
      "video": false,
      "vote_average": 7.1,
      "title": "Star Wars, épisode VIII - Les Derniers Jedi",
      "popularity": 46.509,
      "poster_path": "/prV3qBW4CqFsH14CEQNslnwvqWi.jpg",
      "original_language": "en",
      "original_title": "Star Wars: The Last Jedi",
      "genre_ids": [14, 12, 878, 28],
      "backdrop_path": "/baNQpUlmX8shVmJBGHMSL5Y6MBl.jpg",
      "adult": false,
      "overview": "Nouvel épisode de la saga.  Les héros du Réveil de la force rejoignent les figures légendaires de la galaxie dans une aventure épique qui révèle des secrets ancestraux sur la Force et entraîne de choquantes révélations sur le passé…",
      "release_date": "2017-12-13"
    },
    {
      "vote_count": 2667,
      "id": 348350,
      "video": false,
      "vote_average": 6.6,
      "title": "Solo: A Star Wars Story",
      "popularity": 45.16,
      "poster_path": "/xcKR6cAhdGmZQxyFfBqW5oPUF6E.jpg",
      "original_language": "en",
      "original_title": "Solo: A Star Wars Story",
      "genre_ids": [28, 12, 878],
      "backdrop_path": "/bJekWFxi4FwojQbKfTaW3iCAMhL.jpg",
      "adult": false,
      "overview": "Spin-off de la saga Star Wars : Au cours de périlleuses aventures dans les bas-fonds d’un monde criminel, Han Solo va faire la connaissance de son imposant futur copilote Chewbacca et croiser la route du charmant escroc Lando Calrissian…",
      "release_date": "2018-05-15"
    },
    {
      "vote_count": 31,
      "id": 22599,
      "video": false,
      "vote_average": 6.6,
      "title": "Star",
      "popularity": 2.75,
      "poster_path": "/1CQJxevtaJkyYZjcSFkR10fpdmk.jpg",
      "original_language": "en",
      "original_title": "Star",
      "genre_ids": [35, 28],
      "backdrop_path": "/fVIoaaBUXD9GmUTKeSKwhLB2H1S.jpg",
      "adult": false,
      "overview": "",
      "release_date": "2001-06-01"
    },
    {
      "vote_count": 11560,
      "id": 140607,
      "video": false,
      "vote_average": 7.4,
      "title": "Star Wars, épisode VII - Le Réveil de la Force",
      "popularity": 29.804,
      "poster_path": "/o1NiYG8HGU7tvw0387wb4J28HcA.jpg",
      "original_language": "en",
      "original_title": "Star Wars: The Force Awakens",
      "genre_ids": [28, 12, 878, 14],
      "backdrop_path": "/njv65RTipNSTozFLuF85jL0bcQe.jpg",
      "adult": false,
      "overview": "Il y a bien longtemps, dans une galaxie lointaine… Luke Skywalker est porté disparu. Le pilote Poe est en mission secrète sur une planète pour le retrouver. Au moment où la diabolique armée \"Premier Ordre\" apparaît en détruisant tout sur son passage, il arrive à cacher la position géographique de l'ancien maître Jedi dans son droïde BB-8. Capturé par les larbins du machiavélique Kylo Ren, Poe est libéré par le soldat ennemi Finn qui est en pleine crise existentielle. Pendant ce temps, BB-8 est recueillie par Rey, une pilleuse d'épaves qui sera bientôt plongée dans une quête qui la dépasse.",
      "release_date": "2015-12-15"
    },
    {
      "vote_count": 5717,
      "id": 54138,
      "video": false,
      "vote_average": 7.4,
      "title": "Star Trek : Into Darkness",
      "popularity": 16.974,
      "poster_path": "/uWK8EQhr5LP475s9v8zwNJOAkC.jpg",
      "original_language": "en",
      "original_title": "Star Trek Into Darkness",
      "genre_ids": [28, 12, 878],
      "backdrop_path": "/ns0IojuqJe24AHTxe8RVcWJUCDM.jpg",
      "adult": false,
      "overview": "Alors qu’il rentre à sa base, l’équipage de l’Enterprise doit faire face à des forces terroristes implacables au sein même de son organisation. L’ennemi a fait exploser la flotte et tout ce qu’elle représentait, plongeant notre monde dans le chaos… Dans un monde en guerre, le Capitaine Kirk, animé par la vengeance, se lance dans une véritable chasse à l’homme, pour neutraliser celui qui représente à lui seul une arme de destruction massive. Nos héros entrent dans un jeu d’échecs mortel. L’amour sera menacé, des amitiés seront brisées et des sacrifices devront être faits dans la seule famille qu’il reste à Kirk: son équipe.",
      "release_date": "2013-05-05"
    },
    {
      "vote_count": 36,
      "id": 30707,
      "video": false,
      "vote_average": 6.5,
      "title": "Star 80",
      "popularity": 7.439,
      "poster_path": "/j5DAEigYLAX5ECWBLE5VoTbdUou.jpg",
      "original_language": "en",
      "original_title": "Star 80",
      "genre_ids": [18],
      "backdrop_path": "/4xXJgqLluWCi6Qq09OrHETWjMlD.jpg",
      "adult": false,
      "overview": "",
      "release_date": "1983-11-11"
    },
    {
      "vote_count": 3903,
      "id": 188927,
      "video": false,
      "vote_average": 6.7,
      "title": "Star Trek : Sans Limites",
      "popularity": 15.173,
      "poster_path": "/n9CcYpsQ4ZGdSdpgMBEBPiVByiS.jpg",
      "original_language": "en",
      "original_title": "Star Trek Beyond",
      "genre_ids": [28, 12, 878],
      "backdrop_path": "/mGraqqKJIHe7AzQF1qOseD9BcZx.jpg",
      "adult": false,
      "overview": "Une aventure toujours plus épique de l’USS Enterprise et de son audacieux équipage. L’équipe explore les confins inexplorés de l'espace, faisant face chacun, comme la Fédération tout entière, à une nouvelle menace.",
      "release_date": "2016-07-07"
    },
    {
      "vote_count": 276,
      "id": 12508,
      "video": false,
      "vote_average": 6.1,
      "title": "Rock Star",
      "popularity": 5.973,
      "poster_path": "/eMbsUnRfRciBGLclsqmICPOXbir.jpg",
      "original_language": "en",
      "original_title": "Rock Star",
      "genre_ids": [10402, 18, 35],
      "backdrop_path": "/7rBbIWriZUllqLabRYtN8O4tDTu.jpg",
      "adult": false,
      "overview": "Chris Coles se passionne pour le groupe de heavy metal Steel Dragon. Il gagne sa vie comme vendeur de fournitures de bureau. Une fois la journée de travail terminée, il retrouve les autres membres du groupe Blood Pollution qu'il a fondé en hommage à Steel Dragon et s'évertue à pousser la chansonnette.Mais des dissidences se font jour et Chris se fait expulser de la formation musicale. Il reçoit alors un appel du chanteur de Steel Dragon, un appel qui va changer sa vie. Celui-ci a besoin d'un remplaçant et il a entendu parler des talents de Chris. C'est d'un gars comme lui dont il a besoin.Chris n'en revient pas, son rêve devient réalité : le fan va pouvoir rejoindre ses idoles derrière le micro. Après toutes ces années de dévotion, il goûte enfin à la célébrité d'un véritable chanteur rock.",
      "release_date": "2001-09-04"
    },
    {
      "vote_count": 178,
      "id": 1410,
      "video": false,
      "vote_average": 6.3,
      "title": "Dark Star",
      "popularity": 5.852,
      "poster_path": "/aR0No4pbfDb1SrqxdHMdYqJpsJt.jpg",
      "original_language": "en",
      "original_title": "Dark Star",
      "genre_ids": [35, 878],
      "backdrop_path": "/A5A5JxKXwLNS9MU2B0i4Zfu5tz4.jpg",
      "adult": false,
      "overview": "\"Dark Star\" est un vaisseau spatial chargé de détruire les planètes qui encombrent le système solaire. Alors qu'il s'apprête à lancer une nouvelle bombe, une avarie se produit.",
      "release_date": "1974-04-01"
    },
    {
      "vote_count": 26,
      "id": 181812,
      "video": false,
      "vote_average": 0,
      "title": "Star Wars, épisode IX",
      "popularity": 11.203,
      "poster_path": "/yVYTFvIiKyr6vsrPw3o5C6t2eoL.jpg",
      "original_language": "en",
      "original_title": "Star Wars: Episode IX",
      "genre_ids": [878, 14, 28],
      "backdrop_path": "/pMBxLKnRlLfRFaiBMFEDw2olp1B.jpg",
      "adult": false,
      "overview": "",
      "release_date": "2019-12-18"
    },
    {
      "vote_count": 544,
      "id": 200,
      "video": false,
      "vote_average": 6.4,
      "title": "Star Trek : Insurrection",
      "popularity": 11.194,
      "poster_path": "/kr7o2h47EQBKN95MFolqiMvyDHp.jpg",
      "original_language": "en",
      "original_title": "Star Trek: Insurrection",
      "genre_ids": [878, 28, 12, 53],
      "backdrop_path": "/yaattgmMQ9dLg6n8XPXAER8WI2C.jpg",
      "adult": false,
      "overview": "Les pacifiques Ba'ku, au nombre de six cents, vivent depuis plus de trois cents ans dans un village idyllique, le Carré de Bruyère. Ils ont renoncé au monde moderne et à la technologie en faveur d'un mode de vie agraire et équilibré. Mais, parce qu'ils ont découvert le secret de l’éternelle jeunesse, leur communauté est menacée par les rebelles Son'a qui décident de s'approprier leur territoire. Menés par Ru'afo qui a reçu l'aval de la Fédération, ils préparent ni plus ni moins l’élimination pure et simple de la population Ba'ku. Le capitaine Picard découvre leur projet.",
      "release_date": "1998-12-10"
    },
    {
      "vote_count": 854,
      "id": 199,
      "video": false,
      "vote_average": 7.2,
      "title": "Star Trek : Premier Contact",
      "popularity": 9.179,
      "poster_path": "/4xyN1fEE5KYxDr4GRb6JMMjQFbe.jpg",
      "original_language": "en",
      "original_title": "Star Trek: First Contact",
      "genre_ids": [878, 28, 12, 53],
      "backdrop_path": "/welkOTUozJ968u1KLx33vPpo7aS.jpg",
      "adult": false,
      "overview": "24ème siècle. Alors que l'Enterprise patrouille au fond de la galaxie, le capitaine Picard et ses hommes reçoivent un SOS : les terribles Borg, mi-hommes mi-machines, sont en train d'attaquer la Terre afin de changer l'histoire de l'univers. Pour les contrer, une seule solution : les suivre et remonter trois siècles plus tôt, à l'heure du premier contact avec les Vulcains...",
      "release_date": "1996-11-21"
    },
    {
      "vote_count": 198,
      "id": 29963,
      "video": false,
      "vote_average": 6.7,
      "title": "Bright Star",
      "popularity": 4.848,
      "poster_path": "/dMo0ToyAlicDeSNmY47vZkbrRIK.jpg",
      "original_language": "en",
      "original_title": "Bright Star",
      "genre_ids": [18, 10749],
      "backdrop_path": "/bfC8sfsHImqXWO1WHJJWIhWXEbo.jpg",
      "adult": false,
      "overview": "Londres, 1818. Un jeune poète anglais de 23 ans, John Keats, et sa voisine Fanny Brawne entament une liaison amoureuse secrète. Pourtant, les premiers contacts entre les deux jeunes gens sont assez froids.John trouve que Fanny est une jeune fille élégante mais trop effrontée, et elle-même n'est pas du tout impressionnée par la littérature.C'est la maladie du jeune frère de John qui va les rapprocher. Keats est touché par les efforts que déploie Fanny pour les aider, et il accepte de lui enseigner la poésie. La maladie de Keats va pourtant tout remettre en cause...",
      "release_date": "2009-11-05"
    },
    {
      "vote_count": 120,
      "id": 26748,
      "video": false,
      "vote_average": 7.1,
      "title": "Lone Star",
      "popularity": 4.728,
      "poster_path": "/eSuuTqr5wmzWu4OCS51Qw0q6VrV.jpg",
      "original_language": "en",
      "original_title": "Lone Star",
      "genre_ids": [18, 9648, 10749],
      "backdrop_path": "/jAWu7vxLOIiDwskIXnF8zqtCnRw.jpg",
      "adult": false,
      "overview": "Sam, shérif du comté d'une ville frontalière du Texas, va tenter de trouver le responsable d'un meurtre commis trente-sept ans auparavant et dont le principal suspect, Charley Wade, ancien shérif à la réputation douteuse, n'est autre que son propre père.",
      "release_date": "1996-06-21"
    },
    {
      "vote_count": 10,
      "id": 433018,
      "video": false,
      "vote_average": 4.6,
      "title": "Frat Star",
      "popularity": 4.719,
      "poster_path": "/snUZhnYfF7VUacZrq0WBWezJDlf.jpg",
      "original_language": "en",
      "original_title": "Frat Star",
      "genre_ids": [18, 35],
      "backdrop_path": null,
      "adult": false,
      "overview": "",
      "release_date": "2017-01-03"
    },
    {
      "vote_count": 94,
      "id": 3111,
      "video": false,
      "vote_average": 7.1,
      "title": "Une Étoile est née",
      "popularity": 8.872,
      "poster_path": "/fltVjxvi63sLfXnBOWlTJPrRlM6.jpg",
      "original_language": "en",
      "original_title": "A Star Is Born",
      "genre_ids": [18, 10402, 10749],
      "backdrop_path": "/AlvKqnxlkWWYE6ngRLOWfYY3QuI.jpg",
      "adult": false,
      "overview": "Norman Maine, acteur vieillissant et alcoolique, décèle en Esther Blodgett, une jeune chanteuse, un talent qui ne demande qu'à s'épanouir. Mais Norman, une fois marié à Esther, étoile naissante de la comédie musicale, supporte mal le succès de sa femme et se remet à boire...",
      "release_date": "1954-09-29"
    }
  ]
}
